…
// sum professional manager teacher assprofclerk svcsales armforces xefe farmer craftrademach labourer driver notclass if p3p30_school_level==6

save "/Users/chua0032/Library/CloudStorage/Dropbox/Conformr/brett_occupations/interim/occupn-inc-matrix.dta"
```

</div>

The output STATA data file contains the xmap in matrix form:

``` r
haven::read_dta("interim/occupn-inc-matrix.dta")
```

    # A tibble: 330 × 13
       occupn farmer teacher professional manager armforces  xefe assprofclerk
        <dbl>  <dbl>   <dbl>        <dbl>   <dbl>     <dbl> <dbl>        <dbl>
     1    110      0       0            0       0         1     0            0
     2    120      0       0            0       0         1     0            0
     3    140      0       0            0       0         1     0            0
     4    190      0       0            0       0         1     0            0
     5   1110      0       0            0       1         0     0            0
     6   1120      0       0            0       1         0     0            0
     7   1130      0       0            0       0         0     1            0
     8   1141      0       0            0       1         0     0            0
     9   1142      0       0            0       1         0     0            0
    10   1143      0       0            0       1         0     0            0
    # ℹ 320 more rows
    # ℹ 5 more variables: svcsales <dbl>, labourer <dbl>, driver <dbl>,
    #   craftrademach <dbl>, notclass <dbl>
…
dta_links <- links_from_matrix(inc_mtx_dta)

dta_links |> readr::write_csv("output/dta_links.csv")
```

</div>

The extracted links can be found in
[`output/dta_links.csv`](output/dta_links.csv):

``` r
readr::read_csv("output/dta_links.csv", show_col_types = FALSE)
```

    # A tibble: 329 × 3
        from to        weights
       <dbl> <chr>       <dbl>
     1   110 armforces       1
     2   120 armforces       1
     3   140 armforces       1
     4   190 armforces       1
     5  1110 manager         1
     6  1120 manager         1
     7  1130 xefe            1
     8  1141 manager         1
     9  1142 manager         1
    10  1143 manager         1
    # ℹ 319 more rows
…
